<?xml version="1.0" encoding="utf-8"?>
<!-- Generator: Adobe Illustrator 21.0.0, SVG Export Plug-In . SVG Version: 6.00 Build 0)  -->
<!DOCTYPE svg PUBLIC "-//W3C//DTD SVG 1.1//EN" "http://www.w3.org/Graphics/SVG/1.1/DTD/svg11.dtd" [
	<!ENTITY ns_extend "http://ns.adobe.com/Extensibility/1.0/">
	<!ENTITY ns_ai "http://ns.adobe.com/AdobeIllustrator/10.0/">
	<!ENTITY ns_graphs "http://ns.adobe.com/Graphs/1.0/">
	<!ENTITY ns_vars "http://ns.adobe.com/Variables/1.0/">
	<!ENTITY ns_imrep "http://ns.adobe.com/ImageReplacement/1.0/">
	<!ENTITY ns_sfw "http://ns.adobe.com/SaveForWeb/1.0/">
	<!ENTITY ns_custom "http://ns.adobe.com/GenericCustomNamespace/1.0/">
	<!ENTITY ns_adobe_xpath "http://ns.adobe.com/XPath/1.0/">
	<!ENTITY st0 "fill:#1FD2FD;">
]>
<svg version="1.1" id="Vrstva_1" xmlns:x="&ns_extend;" xmlns:i="&ns_ai;" xmlns:graph="&ns_graphs;"
	 xmlns="http://www.w3.org/2000/svg" xmlns:xlink="http://www.w3.org/1999/xlink" x="0px" y="0px" width="25px" height="23px"
	 viewBox="0 0 25 23" style="enable-background:new 0 0 23 23;" xml:space="preserve">
<path style="&st0;" d="M11.521,1c1.47,0,2.833,0.273,4.095,0.821c1.262,0.546,2.368,1.295,3.32,2.244
	c0.95,0.952,1.699,2.06,2.245,3.32C21.727,8.649,22,10.012,22,11.477V22H11.521c-1.433,0-2.788-0.273-4.065-0.821
	c-1.279-0.546-2.401-1.302-3.369-2.267c-0.966-0.966-1.724-2.09-2.27-3.366C1.271,14.267,1,12.911,1,11.477
	c0-1.465,0.271-2.827,0.817-4.092c0.546-1.26,1.304-2.368,2.27-3.32c0.966-0.949,2.091-1.698,3.369-2.242
	C8.733,1.273,10.086,1,11.521,1z"/>
</svg>
