<?xml version="1.0" encoding="utf-8"?>
<!-- Generator: Adobe Illustrator 21.0.0, SVG Export Plug-In . SVG Version: 6.00 Build 0)  -->
<!DOCTYPE svg PUBLIC "-//W3C//DTD SVG 1.1//EN" "http://www.w3.org/Graphics/SVG/1.1/DTD/svg11.dtd" [
	<!ENTITY ns_extend "http://ns.adobe.com/Extensibility/1.0/">
	<!ENTITY ns_ai "http://ns.adobe.com/AdobeIllustrator/10.0/">
	<!ENTITY ns_graphs "http://ns.adobe.com/Graphs/1.0/">
	<!ENTITY ns_vars "http://ns.adobe.com/Variables/1.0/">
	<!ENTITY ns_imrep "http://ns.adobe.com/ImageReplacement/1.0/">
	<!ENTITY ns_sfw "http://ns.adobe.com/SaveForWeb/1.0/">
	<!ENTITY ns_custom "http://ns.adobe.com/GenericCustomNamespace/1.0/">
	<!ENTITY ns_adobe_xpath "http://ns.adobe.com/XPath/1.0/">
	<!ENTITY st0 "fill:#ffffff;">
]>
<svg version="1.1" id="Vrstva_1" xmlns:x="&ns_extend;" xmlns:i="&ns_ai;" xmlns:graph="&ns_graphs;"
	 xmlns="http://www.w3.org/2000/svg" xmlns:xlink="http://www.w3.org/1999/xlink" x="0px" y="0px" width="14px" height="13px"
	 viewBox="0 0 14 13" style="enable-background:new 0 0 13 13;" xml:space="preserve">
<path style="&st0;" d="M6.511,1c0.77,0,1.484,0.143,2.145,0.43c0.661,0.286,1.24,0.678,1.739,1.175
	c0.498,0.499,0.89,1.079,1.176,1.739C11.857,5.007,12,5.721,12,6.488V12H6.511c-0.751,0-1.46-0.143-2.129-0.43
	c-0.67-0.286-1.258-0.682-1.765-1.187C2.111,9.876,1.714,9.288,1.428,8.619C1.142,7.949,1,7.239,1,6.488
	c0-0.767,0.142-1.481,0.428-2.143c0.286-0.66,0.683-1.24,1.189-1.739c0.506-0.497,1.095-0.889,1.765-1.174
	C5.051,1.143,5.759,1,6.511,1z"/>
</svg>
